…
After cleaning, the dataset is downloaded to my relevant local file.

### 5.2 R: Data Upload

Following code uploaded the SQL-cleaned maize dataset onto R (click the
right button). Following table is the result of successful data import.

``` r
maize <- read_csv("maize_SQL_cleaned.csv")
maize
```

    ## # A tibble: 162 x 4
    ##    harv  trt     rep Dwt_g
    ##    <chr> <chr> <dbl> <dbl>
    ##  1 first C         1   0.2
    ##  2 first C         2   0.1
    ##  3 first C         3   0.2
    ##  4 first C         4   0.1
    ##  5 first C         5   0.3
    ##  6 first C         6   0.1
    ##  7 first C         7   0.4
    ##  8 first C         8   0.5
    ##  9 first C         9   0.1
    ## 10 first C2        1   0.2
    ## # ... with 152 more rows
…
